FEED MONEY $0.00 $5.00
FEED MONEY $5.00 $15.00
FEED MONEY $15.00 $20.00
FEED MONEY $20.00 $22.00
FEED MONEY $22.00 $27.00
FEED MONEY $27.00 $37.00
Potato Crisps A1 $37.00 $33.95
Heavy C4 $33.95 $32.45
Little League Chew D2 $32.45 $31.50
Give Change $31.50 $0.00
06-09-2019 14:58:22 EDT FEED MONEY $0.00 $2.00
06-09-2019 14:58:23 EDT FEED MONEY $2.00 $7.00
06-09-2019 14:58:24 EDT FEED MONEY $7.00 $17.00
06-09-2019 14:58:28 EDT Potato Crisps A1 $17.00 $13.95
06-09-2019 14:58:32 EDT Give Change $13.95 $0.00
06-09-2019 03:01:19 PM FEED MONEY $0.00 $10.00
06-09-2019 03:01:20 PM FEED MONEY $10.00 $20.00
06-09-2019 03:01:20 PM FEED MONEY $20.00 $30.00
06-09-2019 03:01:21 PM FEED MONEY $30.00 $40.00
06-09-2019 03:05:18 PM FEED MONEY    $0.00     $2.00
06-09-2019 03:05:18 PM FEED MONEY    $2.00     $4.00
06-09-2019 03:05:19 PM FEED MONEY    $4.00     $6.00
06-09-2019 03:05:20 PM FEED MONEY    $6.00     $8.00
06-09-2019 03:05:20 PM FEED MONEY    $8.00     $10.00
06-09-2019 03:05:24 PM Give Change    $10.00     $0.00
06-12-2019 04:27:52 PM FEED MONEY    $0.00     $10.00
06-12-2019 04:28:11 PM Cowtales B2    $10.00     $8.50
06-12-2019 04:28:21 PM Give Change    $8.50     $0.00
06-12-2019 04:28:31 PM FEED MONEY    $0.00     $10.00
06-12-2019 04:28:34 PM FEED MONEY    $10.00     $20.00
06-12-2019 04:28:37 PM FEED MONEY    $20.00     $30.00
06-12-2019 04:28:39 PM FEED MONEY    $30.00     $40.00
06-12-2019 04:28:42 PM FEED MONEY    $40.00     $50.00
06-12-2019 04:28:42 PM FEED MONEY    $50.00     $60.00
06-12-2019 04:28:43 PM FEED MONEY    $60.00     $70.00
06-12-2019 04:28:43 PM FEED MONEY    $70.00     $80.00
06-12-2019 04:28:44 PM FEED MONEY    $80.00     $90.00
06-12-2019 04:28:45 PM FEED MONEY    $90.00     $100.00
06-12-2019 04:29:01 PM FEED MONEY    $100.00     $100.00
06-12-2019 04:29:04 PM FEED MONEY    $100.00     $100.00
06-12-2019 04:29:38 PM Chiclets D3    $100.00     $99.25
06-12-2019 04:29:47 PM Chiclets D3    $99.25     $98.50
06-12-2019 04:30:02 PM Chiclets D3    $98.50     $97.75
06-12-2019 04:30:05 PM Chiclets D3    $97.75     $97.00
06-12-2019 04:30:06 PM Chiclets D3    $97.00     $96.25
06-12-2019 04:30:31 PM Give Change    $96.25     $0.00
06-12-2019 04:30:45 PM FEED MONEY    $0.00     $1.00
06-12-2019 04:30:48 PM FEED MONEY    $1.00     $11.00
06-12-2019 04:31:00 PM Give Change    $11.00     $0.00
06-12-2019 04:31:02 PM FEED MONEY    $0.00     $1.00
06-12-2019 04:31:34 PM Little League Chew D2    $1.00     $0.05
06-12-2019 04:31:39 PM Give Change    $0.05     $0.00
06-22-2019 11:39:09 AM FEED MONEY    $0.00     $10.00
06-22-2019 11:39:18 AM Potato Crisps A1    $10.00     $6.95
06-22-2019 11:39:49 AM Give Change    $6.95     $0.00
06-22-2019 12:31:51 PM FEED MONEY    $0.00     $10.00
06-22-2019 12:32:15 PM Cloud Popcorn A4    $10.00     $6.35
06-22-2019 12:32:44 PM Give Change    $6.35     $0.00
